1 10 20
100 200 125
201 210 89
900 1000 174
33 22 112
433837 639438 509
178413 680080 509
247786 709708 509
413852 743685 509
304671 517860 470
425581 521549 470
223021 876325 525
465856 651869 509
223257 851396 525
14408 741234 509
44117 545911 470
466078 522828 470
205149 658619 509
299165 590696 470
51537 623769 470
79227 613287 470
404606 855418 525
155515 833119 509
441720 539906 470
168753 663427 509
193282 698235 509
164507 890996 525
257780 526236 470
206335 823191 509
222752 658652 509
21187 583467 470
209322 624511 470
92070 872441 525
422210 880789 525
63761 554451 470
141360 569210 470
355549 679222 509
225084 697063 509
172006 752672 509
182247 678597 509
90071 811265 509
308504 829885 509
313099 572804 470
255813 568702 470
229739 570978 470
346549 859715 525
9503 553539 470
280140 863483 525
474509 638668 509
242030 564600 470
233195 717069 509
253060 774712 509
62879 575954 470
16052 873442 525
223097 622936 470
86406 682450 509
45110 771190 509
350132 595970 470
261976 509383 449
40425 714339 509
239842 530335 470
308121 559765 470
42980 529344 470
444537 673966 509
323991 859062 525
273126 547576 470
264730 594976 470
474711 704451 509
314597 743632 509
22669 812025 509
419245 521293 470
170110 779625 509
100277 671484 509
499716 656198 509
445971 689961 509
145027 537336 470
305415 892893 525
101603 639303 509
78141 750554 509
90347 724484 509
256170 682568 509
452907 625801 470
79793 641696 509
415471 752578 509
493800 854992 525
422322 863382 525
468814 519283 470
365273 624804 470
130091 743225 509
219495 872669 525
247586 626823 509
439952 845716 525
403722 691087 509
345187 791429 509
493752 574072 470
481288 704510 509
86571 889276 525
146046 723167 509
61729 680716 509
124550 705833 509
182110 508986 449
264454 676966 509
162175 746199 509
428749 874565 525
