1 10 20
100 200 125
201 210 89
900 1000 174
790504 46101 509
547144 18882 470
895808 228985 525
663519 205617 509
745785 418185 509
949839 721152 525
490089 486481 382
641619 75244 509
409085 611851 470
796763 184463 509
505548 689461 509
927198 412173 525
385262 70594 443
343039 997214 525
950591 537932 525
581582 281810 470
660913 621235 509
2897 882218 525
767552 573864 509
493292 450464 444
15601 941044 525
787267 6563 509
303832 271142 389
560638 917357 525
153826 604674 470
745113 556138 509
247313 254369 350
753840 692338 504
720424 746839 424
254426 464063 449
384080 494360 449
265692 530580 470
216311 793725 509
60883 394666 443
213811 419318 449
410158 854701 525
520939 719322 509
215527 455806 449
852618 254219 525
280161 901102 525
715086 23111 509
1733 826000 509
248013 66912 443
48283 306289 443
998164 296175 525
7520 967128 525
695762 952996 525
802645 741179 468
298452 848043 525
428050 208274 449
336081 190820 443
509316 780320 509
564782 837302 509
24272 786969 509
875624 274593 525
709264 789629 468
426156 327058 449
770011 915967 525
678753 539252 509
151694 288329 443
665646 476798 509
536165 229866 470
369283 762806 509
179592 918158 525
476768 55609 449
847361 884431 432
787335 635843 504
964050 762311 525
993383 22031 525
113676 78596 354
376004 725865 509
992318 427460 525
616429 348377 470
867895 748515 525
443798 427574 400
960575 2718 525
374081 436357 449
154199 581922 470
878810 603169 525
840400 556277 525
400205 518758 470
16413 586779 470
886941 685693 525
769762 404360 509
456389 875120 525
256725 882086 525
865527 396958 525
149094 19053 375
8716 795635 509
994979 555930 525
33729 496936 449
106073 503994 449
951010 971280 458
174862 29280 383
48623 598369 470
469198 32536 449
49042 457756 449
690059 210131 509
175180 245674 443
594362 86772 470
91351 636191 509
694638 234429 509
705453 420374 509
182474 177286 365
430830 362212 449
614416 936347 525
694931 870720 525
213539 877820 525
255991 312411 407
374752 412797 449
167358 893847 525
836336 928885 525
186302 437296 449
364032 57056 443
573928 329571 470
507880 683433 509
529469 795665 509
304934 386834 441
73104 930956 525
739401 943718 525
308962 88285 443
504606 637591 509
318332 399307 441
999906 240803 525
630882 246041 509
531883 597530 452
369721 770690 509
552894 178559 470
331071 652684 509
128529 926602 525
477737 190814 449
718844 886747 525
518641 474210 470
681812 378466 509
547533 964653 525
869875 213086 525
380176 866106 525
721298 806803 468
222584 734100 509
928297 643110 525
662013 334084 509
449390 687565 509
976177 291503 525
665024 722684 504
524863 60161 470
211196 330984 443
178327 173811 347
366469 483876 449
800869 595036 509
598651 893452 525
