271053 630042 509
851390 12249 525
354821 46000 443
224349 646318 509
41534 416226 449
688470 507474 509
985203 395945 525
311735 748980 509
580617 362794 470
998735 102595 525
54950 507060 449
563673 594027 434
561874 774952 509
549593 76471 470
734892 227062 509
721167 12256 509
401746 629142 509
936301 100897 525
983932 195852 525
821103 329027 509
575053 480330 470
713333 468770 509
618705 5733 470
843716 443121 525
203192 900903 525
858210 173137 525
419438 710648 509
978799 993672 427
863572 634019 525
418237 890153 525
150751 869802 525
447268 110267 449
616596 393969 470
117113 699162 509
316803 343673 384
106109 287572 443
987247 795562 525
417795 310202 449
106303 308894 443
550317 853948 525
325293 463690 449
226975 307586 443
79322 286666 443
125594 680972 509
957194 594731 525
155678 601867 470
360299 162078 443
824310 947153 525
936591 312121 525
883834 944578 507
601546 883709 525
124739 186734 383
744928 894965 525
720890 809524 468
203718 18690 383
255166 221926 443
166696 171347 334
846096 192705 525
277141 597752 470
241466 54669 443
117487 853789 525
595901 355971 470
307339 533026 470
8815 204297 383
185326 407771 443
817528 925750 525
80161 139979 354
58133 114103 354
293741 292333 358
115717 118599 336
243234 816188 509
339311 366213 441
679720 553823 509
171207 108213 383
346016 888437 525
980886 480266 525
621470 49944 470
547573 692056 509
879990 811155 525
891866 533566 525
369930 266382 441
444776 93385 449
374321 450473 449
638448 917165 525
824949 676934 504
902526 293400 525
380060 141043 443
45647 347959 443
476952 218271 449
509326 805861 509
38435 438188 449
13468 835687 509
496781 277949 449
338024 918114 525
765247 689903 504
832695 658809 504
466058 518494 470
199866 444038 449
185049 667741 509
161109 495103 449
275661 532840 470
250103 48719 443
138243 940192 525
494412 910590 525
235267 464729 449
977358 107977 525
772409 363159 509
775196 790170 437
396067 990146 525
210612 67469 383
123375 934342 525
641058 978521 525
449526 352400 449
449846 230823 449
211450 689934 509
276734 22856 443
650978 118971 509
97921 174126 383
404954 332920 441
91320 918308 525
295531 897030 525
54188 960301 525
746946 533289 509
559941 484031 470
373785 430507 449
904101 351773 525
22903 403659 443
685820 263278 509
780424 154949 509
257335 939074 525
488700 335130 449
874225 934421 476
396484 584911 470
24336 386692 443
366934 577380 470
455374 997963 525
916492 341084 525
626338 721474 504
153187 90231 375
106786 651191 509
315887 529855 470
127329 80633 354
217796 412939 449
326529 620515 470
659339 572770 509
659626 554227 509
647977 90226 509
629847 711707 504
230281 765269 509
821947 823377 344
